%YAML 1.1
%TAG !u! tag:unity3d.com,2011:
--- !u!114 &11400000
MonoBehaviour:
  m_ObjectHideFlags: 0
  m_CorrespondingSourceObject: {fileID: 0}
  m_PrefabInstance: {fileID: 0}
  m_PrefabAsset: {fileID: 0}
  m_GameObject: {fileID: 0}
  m_Enabled: 1
  m_EditorHideFlags: 0
  m_Script: {fileID: 11500000, guid: bbb281ee3bf0b054c82ac2347e9e782c, type: 3}
  m_Name: Prefabs Animals
  m_EditorClassIdentifier: 
  m_GroupName: Prefabs Animals
  m_Data:
    m_SerializedData: []
  m_GUID: b14773a6effe1694f95affe2144367ac
  m_SerializeEntries:
  - m_GUID: 52a39ad30e1f2ce4f85745952274782d
    m_Address: Cat
    m_ReadOnly: 0
    m_SerializedLabels:
    - PrefabsAnimals
  - m_GUID: 76ecca3752930104892a54cbab227c21
    m_Address: Assets/Prefabs/Animals/Flower.prefab
    m_ReadOnly: 0
    m_SerializedLabels:
    - PrefabsAnimals
  - m_GUID: bb38a042a3f83e44fbcd5ffc3c3dd6cc
    m_Address: Assets/Prefabs/Animals/Lion.prefab
    m_ReadOnly: 0
    m_SerializedLabels:
    - PrefabsAnimals
  - m_GUID: 3fae829f75c9c19439edb404b5f6564b
    m_Address: Assets/Prefabs/Animals/Chicken.prefab
    m_ReadOnly: 0
    m_SerializedLabels:
    - PrefabsAnimals
  - m_GUID: 3f6106dde734ed64eb6d91c7dc809341
    m_Address: Assets/Prefabs/Animals/Dog.prefab
    m_ReadOnly: 0
    m_SerializedLabels:
    - PrefabsAnimals
  - m_GUID: f4efd43eb0a591d4eb1e18e8271020bd
    m_Address: Assets/Prefabs/Animals/Penguin.prefab
    m_ReadOnly: 0
    m_SerializedLabels:
    - PrefabsAnimals
  - m_GUID: daf050e51414a144b9cde9fd5696c091
    m_Address: Assets/Prefabs/Animals/Tree2.prefab
    m_ReadOnly: 0
    m_SerializedLabels:
    - PrefabsAnimals
  - m_GUID: dc372e84e9c040d4e8775dffa36c9713
    m_Address: Assets/Prefabs/Animals/Tree.prefab
    m_ReadOnly: 0
    m_SerializedLabels:
    - PrefabsAnimals
  m_ReadOnly: 0
  m_Settings: {fileID: 11400000, guid: 30e63205b3e61bb45a9652e8e7fbb9ca, type: 2}
  m_SchemaSet:
    m_Schemas:
    - {fileID: 11400000, guid: 42cdffb7d6447234eb93f46cb1fce9be, type: 2}
    - {fileID: 11400000, guid: 0f45b229e7d9d374e8326e68d64f3377, type: 2}
