%YAML 1.1
%TAG !u! tag:unity3d.com,2011:
--- !u!114 &11400000
MonoBehaviour:
  m_ObjectHideFlags: 0
  m_CorrespondingSourceObject: {fileID: 0}
  m_PrefabInstance: {fileID: 0}
  m_PrefabAsset: {fileID: 0}
  m_GameObject: {fileID: 0}
  m_Enabled: 1
  m_EditorHideFlags: 0
  m_Script: {fileID: 11500000, guid: bbb281ee3bf0b054c82ac2347e9e782c, type: 3}
  m_Name: PrefabAnimalButton
  m_EditorClassIdentifier: 
  m_GroupName: PrefabAnimalButton
  m_Data:
    m_SerializedData: []
  m_GUID: 9d580f27354f2a54890fcb3c57b6718a
  m_SerializeEntries:
  - m_GUID: 1b622fae8221f0b46a59006f4da06e41
    m_Address: Assets/Prefabs/Preview/AnimalButton.prefab
    m_ReadOnly: 0
    m_SerializedLabels:
    - Preview
  m_ReadOnly: 0
  m_Settings: {fileID: 11400000, guid: 30e63205b3e61bb45a9652e8e7fbb9ca, type: 2}
  m_SchemaSet:
    m_Schemas:
    - {fileID: 11400000, guid: ea398f46915a4ad4293c5b5d75b13b11, type: 2}
    - {fileID: 11400000, guid: a25d489569aec9a4e9f98a45b7289ad8, type: 2}
