%YAML 1.1
%TAG !u! tag:unity3d.com,2011:
--- !u!1 &5278573886475851323
GameObject:
  m_ObjectHideFlags: 0
  m_CorrespondingSourceObject: {fileID: 0}
  m_PrefabInstance: {fileID: 0}
  m_PrefabAsset: {fileID: 0}
  serializedVersion: 6
  m_Component:
  - component: {fileID: 5278573886475851317}
  m_Layer: 0
  m_Name: Reticle Prefab
  m_TagString: PlaneMarker
  m_Icon: {fileID: 0}
  m_NavMeshLayer: 0
  m_StaticEditorFlags: 0
  m_IsActive: 1
--- !u!4 &5278573886475851317
Transform:
  m_ObjectHideFlags: 0
  m_CorrespondingSourceObject: {fileID: 0}
  m_PrefabInstance: {fileID: 0}
  m_PrefabAsset: {fileID: 0}
  m_GameObject: {fileID: 5278573886475851323}
  m_LocalRotation: {x: 0, y: 0, z: 0, w: 1}
  m_LocalPosition: {x: 0, y: 0, z: 0}
  m_LocalScale: {x: 0.3, y: 0.3, z: 0.3}
  m_Children:
  - {fileID: 675987385565567810}
  m_Father: {fileID: 0}
  m_RootOrder: 0
  m_LocalEulerAnglesHint: {x: 0, y: 0, z: 0}
--- !u!1001 &1075005229096418473
PrefabInstance:
  m_ObjectHideFlags: 0
  serializedVersion: 2
  m_Modification:
    m_TransformParent: {fileID: 5278573886475851317}
    m_Modifications:
    - target: {fileID: -8679921383154817045, guid: c089bc0a1202749f5b9e3ddd3fe5b371, type: 3}
      propertyPath: m_RootOrder
      value: 0
      objectReference: {fileID: 0}
    - target: {fileID: -8679921383154817045, guid: c089bc0a1202749f5b9e3ddd3fe5b371, type: 3}
      propertyPath: m_LocalPosition.x
      value: 0
      objectReference: {fileID: 0}
    - target: {fileID: -8679921383154817045, guid: c089bc0a1202749f5b9e3ddd3fe5b371, type: 3}
      propertyPath: m_LocalPosition.y
      value: 0
      objectReference: {fileID: 0}
    - target: {fileID: -8679921383154817045, guid: c089bc0a1202749f5b9e3ddd3fe5b371, type: 3}
      propertyPath: m_LocalPosition.z
      value: 0
      objectReference: {fileID: 0}
    - target: {fileID: -8679921383154817045, guid: c089bc0a1202749f5b9e3ddd3fe5b371, type: 3}
      propertyPath: m_LocalRotation.w
      value: 1
      objectReference: {fileID: 0}
    - target: {fileID: -8679921383154817045, guid: c089bc0a1202749f5b9e3ddd3fe5b371, type: 3}
      propertyPath: m_LocalRotation.x
      value: 0
      objectReference: {fileID: 0}
    - target: {fileID: -8679921383154817045, guid: c089bc0a1202749f5b9e3ddd3fe5b371, type: 3}
      propertyPath: m_LocalRotation.y
      value: 0
      objectReference: {fileID: 0}
    - target: {fileID: -8679921383154817045, guid: c089bc0a1202749f5b9e3ddd3fe5b371, type: 3}
      propertyPath: m_LocalRotation.z
      value: 0
      objectReference: {fileID: 0}
    - target: {fileID: -8679921383154817045, guid: c089bc0a1202749f5b9e3ddd3fe5b371, type: 3}
      propertyPath: m_LocalEulerAnglesHint.x
      value: 0
      objectReference: {fileID: 0}
    - target: {fileID: -8679921383154817045, guid: c089bc0a1202749f5b9e3ddd3fe5b371, type: 3}
      propertyPath: m_LocalEulerAnglesHint.y
      value: 0
      objectReference: {fileID: 0}
    - target: {fileID: -8679921383154817045, guid: c089bc0a1202749f5b9e3ddd3fe5b371, type: 3}
      propertyPath: m_LocalEulerAnglesHint.z
      value: 0
      objectReference: {fileID: 0}
    - target: {fileID: 919132149155446097, guid: c089bc0a1202749f5b9e3ddd3fe5b371, type: 3}
      propertyPath: m_Name
      value: Reticle Model Export
      objectReference: {fileID: 0}
    - target: {fileID: 919132149155446097, guid: c089bc0a1202749f5b9e3ddd3fe5b371, type: 3}
      propertyPath: m_IsActive
      value: 1
      objectReference: {fileID: 0}
    m_RemovedComponents: []
  m_SourcePrefab: {fileID: 100100000, guid: c089bc0a1202749f5b9e3ddd3fe5b371, type: 3}
--- !u!4 &675987385565567810 stripped
Transform:
  m_CorrespondingSourceObject: {fileID: -8679921383154817045, guid: c089bc0a1202749f5b9e3ddd3fe5b371, type: 3}
  m_PrefabInstance: {fileID: 1075005229096418473}
  m_PrefabAsset: {fileID: 0}
